\relax 
\bibstyle{unsrt}
\providecommand \oddpage@label [2]{}
\select@language{croatian}
\@writefile{toc}{\select@language{croatian}}
\@writefile{lof}{\select@language{croatian}}
\@writefile{lot}{\select@language{croatian}}
\citation{chikhi2013space}
\citation{chikhi2013space}
\@writefile{toc}{\contentsline {chapter}{\numberline {1}Uvod}{1}}
\@writefile{lof}{\addvspace {10\p@ }}
\@writefile{lot}{\addvspace {10\p@ }}
\@writefile{loa}{\addvspace {10\p@ }}
\@writefile{toc}{\contentsline {chapter}{\numberline {2}Osnovni pojmovi}{2}}
\@writefile{lof}{\addvspace {10\p@ }}
\@writefile{lot}{\addvspace {10\p@ }}
\@writefile{loa}{\addvspace {10\p@ }}
\@writefile{toc}{\contentsline {section}{\numberline {2.1}DeBrujin graf}{2}}
\@writefile{toc}{\contentsline {section}{\numberline {2.2}Bloom filter}{2}}
\@writefile{toc}{\contentsline {section}{\numberline {2.3}K-mer}{2}}
\citation{chikhi2013space}
\@writefile{toc}{\contentsline {chapter}{\numberline {3}Reprezentacija grafa sa bloom filterom i cFP skupom}{3}}
\@writefile{lof}{\addvspace {10\p@ }}
\@writefile{lot}{\addvspace {10\p@ }}
\@writefile{loa}{\addvspace {10\p@ }}
\@writefile{toc}{\contentsline {section}{\numberline {3.1}Izgradnja cFP skupa}{3}}
\@writefile{toc}{\contentsline {chapter}{\numberline {4}Brojanje K-mera}{5}}
\@writefile{lof}{\addvspace {10\p@ }}
\@writefile{lot}{\addvspace {10\p@ }}
\@writefile{loa}{\addvspace {10\p@ }}
\@writefile{toc}{\contentsline {section}{\numberline {4.1}Ciklusi }{5}}
\@writefile{toc}{\contentsline {chapter}{\numberline {5}Obilazak Grafa}{6}}
\@writefile{lof}{\addvspace {10\p@ }}
\@writefile{lot}{\addvspace {10\p@ }}
\@writefile{loa}{\addvspace {10\p@ }}
\@writefile{toc}{\contentsline {section}{\numberline {5.1}Sa\IeC {\v z}imanje Grafa}{6}}
\@writefile{toc}{\contentsline {section}{\numberline {5.2}Odabir po\IeC {\v c}etnog K-mera}{6}}
\@writefile{toc}{\contentsline {section}{\numberline {5.3}Algoritam za obilazak grafa}{7}}
\@writefile{toc}{\contentsline {section}{\numberline {5.4}Ozna\IeC {\v c}avanje obi\IeC {\dj }enih \IeC {\v c}vorova}{7}}
\@writefile{toc}{\contentsline {chapter}{\numberline {6}Rezultati}{8}}
\@writefile{lof}{\addvspace {10\p@ }}
\@writefile{lot}{\addvspace {10\p@ }}
\@writefile{loa}{\addvspace {10\p@ }}
\providecommand*\caption@xref[2]{\@setref\relax\@undefined{#1}}
\newlabel{fig:1}{{6.1a}{8}}
\newlabel{sub@fig:1}{{a}{8}}
\newlabel{fig:2}{{6.1b}{8}}
\newlabel{sub@fig:2}{{b}{8}}
\@writefile{lof}{\contentsline {figure}{\numberline {6.1}{\ignorespaces Rezultati poklapanja za Bacillus cereus (SRR6443792)\relax }}{8}}
\@writefile{toc}{\contentsline {chapter}{\numberline {7}Pote\IeC {\v s}ko\IeC {\'c}e i mogu\IeC {\'c}a pobolj\IeC {\v s}anja}{9}}
\@writefile{lof}{\addvspace {10\p@ }}
\@writefile{lot}{\addvspace {10\p@ }}
\@writefile{loa}{\addvspace {10\p@ }}
\bibdata{literatura}
\@writefile{toc}{\contentsline {chapter}{\numberline {8}Zaklju\IeC {\v c}ak}{10}}
\@writefile{lof}{\addvspace {10\p@ }}
\@writefile{lot}{\addvspace {10\p@ }}
\@writefile{loa}{\addvspace {10\p@ }}
\bibcite{chikhi2013space}{{1}{}{{}}{{}}}
\bibstyle{fer}
\@writefile{toc}{\contentsline {chapter}{\numberline {9}Literatura}{11}}
\@writefile{lof}{\addvspace {10\p@ }}
\@writefile{lot}{\addvspace {10\p@ }}
\@writefile{loa}{\addvspace {10\p@ }}
\providecommand\NAT@force@numbers{}\NAT@force@numbers
\@writefile{toc}{\contentsline {chapter}{\numberline {10}Sa\IeC {\v z}etak}{12}}
\@writefile{lof}{\addvspace {10\p@ }}
\@writefile{lot}{\addvspace {10\p@ }}
\@writefile{loa}{\addvspace {10\p@ }}
